[
    {
        "elasticsearch": {
            "endpoint": "http://elasticsearch:9200"
        },
        "mongodb": {
            "endpoint": "mongodb:27017"
        },
        "resources": [
            {
                "mongoDatabaseName": "firstDb",
                "mongoCollectionName": "firstCollection",
                "mongoUpdateField": "lastUpdateTimestamp",
                "elasticsearchIndex": "firstCollection",
                "elasticsearchType": "firstCollectionType",
                "pollingInterval": 1000,
                "limit": 1
            },
            {
                "mongoDatabaseName": "firstDb",
                "mongoCollectionName": "secondCollection",
                "mongoUpdateField": "lastUpdateTimestamp",
                "elasticsearchIndex": "secondCollection",
                "elasticsearchType": "secondCollectionType",
                "pollingInterval": 1000,
                "limit": 1
            }
        ]
    }
]